{
  "apps" : [
    {
      "name"            : "petrolette",
      "script"          : "./http/server.js",
      "watch"           : true,
      "ignore_watch"    : ["#*", "favicons-cache", ".git", "node_modules"],
      "time"            : false
    }
  ]
}
