<?xml version="1.0" encoding="UTF-8" standalone="no"?>
<!-- Created with Inkscape (http://www.inkscape.org/) -->

<svg
   xmlns:dc="http://purl.org/dc/elements/1.1/"
   xmlns:cc="http://creativecommons.org/ns#"
   xmlns:rdf="http://www.w3.org/1999/02/22-rdf-syntax-ns#"
   xmlns:svg="http://www.w3.org/2000/svg"
   xmlns="http://www.w3.org/2000/svg"
   xmlns:sodipodi="http://sodipodi.sourceforge.net/DTD/sodipodi-0.dtd"
   xmlns:inkscape="http://www.inkscape.org/namespaces/inkscape"
   width="146.8969mm"
   height="147.98291mm"
   viewBox="0 0 520.50081 524.34889"
   id="svg2"
   version="1.1"
   inkscape:version="0.92.5 (2060ec1f9f, 2020-04-08)"
   sodipodi:docname="newlogo.svg"
   inkscape:export-filename="/home/px/src/petrolette/public/images/newlogo.png"
   inkscape:export-xdpi="5.1900001"
   inkscape:export-ydpi="5.1900001">
  <defs
     id="defs4" />
  <sodipodi:namedview
     id="base"
     pagecolor="#ffffff"
     bordercolor="#666666"
     borderopacity="1.0"
     inkscape:pageopacity="0.0"
     inkscape:pageshadow="2"
     inkscape:zoom="0.35"
     inkscape:cx="42.305884"
     inkscape:cy="270.028"
     inkscape:document-units="px"
     inkscape:current-layer="layer1"
     showgrid="false"
     inkscape:window-width="1050"
     inkscape:window-height="1034"
     inkscape:window-x="0"
     inkscape:window-y="22"
     inkscape:window-maximized="0"
     units="px"
     fit-margin-top="0"
     fit-margin-left="0"
     fit-margin-right="0"
     fit-margin-bottom="0" />
  <metadata
     id="metadata7">
    <rdf:RDF>
      <cc:Work
         rdf:about="">
        <dc:format>image/svg+xml</dc:format>
        <dc:type
           rdf:resource="http://purl.org/dc/dcmitype/StillImage" />
        <dc:title />
      </cc:Work>
    </rdf:RDF>
  </metadata>
  <g
     inkscape:label="Layer 1"
     inkscape:groupmode="layer"
     id="layer1"
     transform="translate(-111.79684,-278.04128)">
    <path
       style="fill:none;fill-rule:evenodd;stroke:#19b5fe;stroke-width:41.90000153;stroke-linecap:round;stroke-linejoin:round;stroke-miterlimit:4;stroke-dasharray:none;stroke-opacity:1"
       d="m 133.00535,299.14183 162.85714,94.28571 0,51.42857 0,193.42857"
       id="path4138"
       inkscape:connector-curvature="0"
       sodipodi:nodetypes="cccc"
       inkscape:export-xdpi="8.6499996"
       inkscape:export-ydpi="8.6499996"
       inkscape:export-filename="/home/px/src/petrolette/public/images/newlogo.png" />
    <path
       style="fill:none;fill-rule:evenodd;stroke:#19b5fe;stroke-width:41.90000153;stroke-linecap:round;stroke-linejoin:round;stroke-miterlimit:4;stroke-dasharray:none;stroke-opacity:1"
       d="m 372.04723,344.28468 0,51.42857 0,385.42857"
       id="path4138-3"
       inkscape:connector-curvature="0"
       sodipodi:nodetypes="ccc"
       inkscape:export-xdpi="8.6499996"
       inkscape:export-ydpi="8.6499996"
       inkscape:export-filename="/home/px/src/petrolette/public/images/newlogo.png" />
    <path
       style="fill:none;fill-rule:evenodd;stroke:#19b5fe;stroke-width:41.90000153;stroke-linecap:round;stroke-linejoin:round;stroke-miterlimit:4;stroke-dasharray:none;stroke-opacity:1"
       d="m 611.08914,299.14184 -162.85715,94.2857 0,51.42857 0,193.42857"
       id="path4138-6"
       inkscape:connector-curvature="0"
       sodipodi:nodetypes="cccc"
       inkscape:export-xdpi="8.6499996"
       inkscape:export-ydpi="8.6499996"
       inkscape:export-filename="/home/px/src/petrolette/public/images/newlogo.png" />
  </g>
</svg>
